0x08100001 j Main
0x012a4024 Main: and $t0,$t1,$t2
0x012a5825 or $t3, $t1, $t2
0x012a6020 add $t4, $t1, $t2
0x012a6822 sub $t5, $t1, $t2
0xadca0000 sw $t2, 0($t6)
0x8dea0000 lw $t2, 0($t7)
0x014b502a slt $t2, $t2, $t3
0x114bfff8 beq $t2, $t3, Main