hades.symbols.BboxRectangle  0 0 4800 1200
hades.symbols.Rectangle  0 0 4800 1200
hades.symbols.PortLabel 150 750 i0
hades.symbols.PortSymbol 0 600 i0
hades.symbols.InstanceLabel 150 1050 BEQ
hades.symbols.ClassLabel 150 450 BEQ
