hades.symbols.BboxRectangle  0 0 4800 1800
hades.symbols.Rectangle  0 0 4800 1800
hades.symbols.PortLabel 4650 750 3 Operation
hades.symbols.PortSymbol 4800 600 Operation
hades.symbols.PortLabel 150 1350 Inst_\u005b5_0\u005d
hades.symbols.PortSymbol 0 1200 Inst_[5_0]
hades.symbols.PortLabel 150 750 ALUOp
hades.symbols.PortSymbol 0 600 ALUOp
hades.symbols.InstanceLabel 150 1650 ALU_CONTROLE
hades.symbols.ClassLabel 150 450 ALU_CONTROLE
