hades.symbols.BboxRectangle  0 0 4800 5400
hades.symbols.Rectangle  0 0 4800 5400
hades.symbols.PortLabel 4650 4950 3 ALUOP
hades.symbols.PortSymbol 4800 4800 ALUOP
hades.symbols.PortLabel 4650 4350 3 Branch
hades.symbols.PortSymbol 4800 4200 Branch
hades.symbols.PortLabel 4650 3750 3 MemWrite
hades.symbols.PortSymbol 4800 3600 MemWrite
hades.symbols.PortLabel 4650 3150 3 MemRead
hades.symbols.PortSymbol 4800 3000 MemRead
hades.symbols.PortLabel 4650 2550 3 RegWrite
hades.symbols.PortSymbol 4800 2400 RegWrite
hades.symbols.PortLabel 4650 1950 3 MemtoReg
hades.symbols.PortSymbol 4800 1800 MemtoReg
hades.symbols.PortLabel 4650 1350 3 ALUSrc
hades.symbols.PortSymbol 4800 1200 ALUSrc
hades.symbols.PortLabel 4650 750 3 RegDst
hades.symbols.PortSymbol 4800 600 RegDst
hades.symbols.PortLabel 150 750 i46
hades.symbols.PortSymbol 0 600 i46
hades.symbols.InstanceLabel 150 5250 CONTROL
hades.symbols.ClassLabel 150 450 CONTROL
